{
	"info": {
		"_postman_id": "1aa713ce-975c-4524-989c-dc4ba81a7445",
		"name": "AulaSpring",
		"schema": "https://schema.getpostman.com/json/collection/v2.0.0/collection.json"
	},
	"item": [
		{
			"name": "Adicionar novo banco",
			"request": {
				"method": "POST",
				"header": [
					{
						"key": "Content-Type",
						"name": "Content-Type",
						"value": "application/json",
						"type": "text"
					}
				],
				"body": {
					"mode": "raw",
					"raw": "{\n\t\"codigo\": 1234,\n\t\"nome\": \"DBC BANK\"\n}"
				},
				"url": "http://localhost:8080/api/banco/novo"
			},
			"response": []
		}
	]
}